%YAML 1.1
%TAG !u! tag:unity3d.com,2011:
--- !u!1 &3473212521239198246
GameObject:
  m_ObjectHideFlags: 0
  m_CorrespondingSourceObject: {fileID: 0}
  m_PrefabInstance: {fileID: 0}
  m_PrefabAsset: {fileID: 0}
  serializedVersion: 6
  m_Component:
  - component: {fileID: 3473212521239198425}
  - component: {fileID: 3473212521239198424}
  - component: {fileID: 3473212521239198247}
  - component: {fileID: 3473212521239198426}
  m_Layer: 0
  m_Name: Map Generator
  m_TagString: Untagged
  m_Icon: {fileID: 0}
  m_NavMeshLayer: 0
  m_StaticEditorFlags: 0
  m_IsActive: 1
--- !u!4 &3473212521239198425
Transform:
  m_ObjectHideFlags: 0
  m_CorrespondingSourceObject: {fileID: 0}
  m_PrefabInstance: {fileID: 0}
  m_PrefabAsset: {fileID: 0}
  m_GameObject: {fileID: 3473212521239198246}
  m_LocalRotation: {x: 0, y: 0, z: 0, w: 1}
  m_LocalPosition: {x: 0, y: 0, z: 0}
  m_LocalScale: {x: 1, y: 1, z: 1}
  m_Children: []
  m_Father: {fileID: 0}
  m_RootOrder: 0
  m_LocalEulerAnglesHint: {x: 0, y: 0, z: 0}
--- !u!114 &3473212521239198424
MonoBehaviour:
  m_ObjectHideFlags: 0
  m_CorrespondingSourceObject: {fileID: 0}
  m_PrefabInstance: {fileID: 0}
  m_PrefabAsset: {fileID: 0}
  m_GameObject: {fileID: 3473212521239198246}
  m_Enabled: 1
  m_EditorHideFlags: 0
  m_Script: {fileID: 11500000, guid: 86d4906ace48a72468e5b49a233317cf, type: 3}
  m_Name: 
  m_EditorClassIdentifier: 
  drawMode: 1
  editorPreviewLOD: 0
  noiseScale: 25
  octaves: 5
  persistance: 0.5
  lacunarity: 2
  seed: 0
  offset: {x: 0, y: 0}
  meshHeighMultiplier: 13.5
  meshHeightCurve:
    serializedVersion: 2
    m_Curve:
    - serializedVersion: 3
      time: 0
      value: 0
      inSlope: 0
      outSlope: 0
      tangentMode: 0
      weightedMode: 0
      inWeight: 0
      outWeight: 0
    - serializedVersion: 3
      time: 0.48450068
      value: 0.060287684
      inSlope: 0.4427915
      outSlope: 0.4427915
      tangentMode: 0
      weightedMode: 0
      inWeight: 0.33333334
      outWeight: 0.0785734
    - serializedVersion: 3
      time: 1
      value: 1
      inSlope: 2
      outSlope: 2
      tangentMode: 0
      weightedMode: 0
      inWeight: 0
      outWeight: 0
    m_PreInfinity: 2
    m_PostInfinity: 2
    m_RotationOrder: 4
  autoUpdate: 1
  regions:
  - name: Water Deep
    height: 0.3
    colour: {r: 0.10720008, g: 0.12079328, b: 0.6886792, a: 0}
  - name: Water Shallow
    height: 0.4
    colour: {r: 0.17123532, g: 0.21773052, b: 0.9811321, a: 0}
  - name: Sand
    height: 0.45
    colour: {r: 0.9245283, g: 0.912851, b: 0.5712887, a: 0}
  - name: Grass
    height: 0.55
    colour: {r: 0.16135636, g: 0.6981132, b: 0.18470974, a: 0}
  - name: Grass 2
    height: 0.6
    colour: {r: 0.1439124, g: 0.3962264, b: 0.18920015, a: 0}
  - name: Rock
    height: 0.7
    colour: {r: 0.5188679, g: 0.39701605, b: 0.070977226, a: 0}
  - name: Rock 2
    height: 0.9
    colour: {r: 0.3773585, g: 0.27295998, b: 0.18333928, a: 0}
  - name: Snow
    height: 1
    colour: {r: 0.9339623, g: 0.9339623, b: 0.9339623, a: 0}
--- !u!114 &3473212521239198247
MonoBehaviour:
  m_ObjectHideFlags: 0
  m_CorrespondingSourceObject: {fileID: 0}
  m_PrefabInstance: {fileID: 0}
  m_PrefabAsset: {fileID: 0}
  m_GameObject: {fileID: 3473212521239198246}
  m_Enabled: 1
  m_EditorHideFlags: 0
  m_Script: {fileID: 11500000, guid: ff9e15e30b8a79a4d88b45a5cc1e70f7, type: 3}
  m_Name: 
  m_EditorClassIdentifier: 
  textureRender: {fileID: 0}
  meshFilter: {fileID: 0}
  meshRenderer: {fileID: 0}
--- !u!114 &3473212521239198426
MonoBehaviour:
  m_ObjectHideFlags: 0
  m_CorrespondingSourceObject: {fileID: 0}
  m_PrefabInstance: {fileID: 0}
  m_PrefabAsset: {fileID: 0}
  m_GameObject: {fileID: 3473212521239198246}
  m_Enabled: 1
  m_EditorHideFlags: 0
  m_Script: {fileID: 11500000, guid: 491b21d058ccddf42bad550366f94998, type: 3}
  m_Name: 
  m_EditorClassIdentifier: 
  detailLevels:
  - lod: 0
    visibleDstThreshold: 200
  - lod: 1
    visibleDstThreshold: 400
  - lod: 2
    visibleDstThreshold: 600
  viewer: {fileID: 0}
  mapMaterial: {fileID: 2100000, guid: 218217f6c61392e40b39dbfc6eac47b0, type: 2}
